…
# Examples

## Create some aggregated tables using `comp_table`

Pick everything from Client B, don’t perform any more aggregation or
filtering:

    comp_table(
      data = timesheet,
      client_name = "Client B"
      )

    ## # A tibble: 29 × 6
    ##    Month    Task                Project   Hours Compensation Total
    ##    <fct>    <chr>               <chr>     <int>        <dbl> <dbl>
    ##  1 January  data analysis       Project 1     4          360   360
    ##  2 January  data analysis       Project 3    17         1530  1890
    ##  3 January  predictive modeling Project 1     5          450  2340
    ##  4 January  reporting           Project 2    22         1980  4320
    ##  5 February data analysis       Project 1    28         2520  6840
    ##  6 February data analysis       Project 3     8          720  7560
    ##  7 February NLP                 Project 2     9          810  8370
    ##  8 February NLP                 Project 3     5          450  8820
    ##  9 February predictive modeling Project 2    15         1350 10170
    ## 10 February reporting           Project 1     5          450 10620
    ## # … with 19 more rows
…
